
FrontEnd
------------------------------------------------------------------------------------------------------------------------
.single-search-product .desc .title
.header_area .navbar .nav .nav-item:hover .nav-link, .header_area .navbar .nav .nav-item.active .nav-link
.button-header

------------------------------------------------------------------------------------------------------------------------
*** Trending Product (the underline)

------------------------------------------------------------------------------------------------------------------------

BackEnd
------------------------------------------------------------------------------------------------------------------------
*** OrderDto is never used. it can be deleted among the methods associated with it.